%YAML 1.1
%TAG !u! tag:unity3d.com,2011:
--- !u!114 &11400000
MonoBehaviour:
  m_ObjectHideFlags: 0
  m_CorrespondingSourceObject: {fileID: 0}
  m_PrefabInstance: {fileID: 0}
  m_PrefabAsset: {fileID: 0}
  m_GameObject: {fileID: 0}
  m_Enabled: 1
  m_EditorHideFlags: 0
  m_Script: {fileID: 11500000, guid: 75783ecc49818ff48852056898d66c80, type: 3}
  m_Name: Rupee2
  m_EditorClassIdentifier: 
  Value: 5
  Color: {r: 0, g: 0.4199891, b: 1, a: 1}
