%YAML 1.1
%TAG !u! tag:unity3d.com,2011:
--- !u!1045 &1
EditorBuildSettings:
  m_ObjectHideFlags: 0
  serializedVersion: 2
  m_Scenes:
  - enabled: 1
    path: Assets/Scenes/PreGame.unity
    guid: 30cf20e2e44f7c0428762774f6371a2f
  - enabled: 1
    path: Assets/Scenes/BoxPuzzle.unity
    guid: ab86d3cdc7f58aa4693ece4fa8f442df
  - enabled: 1
    path: Assets/Scenes/Stealth.unity
    guid: cbbfe4cd8450813458b0f0d80808b0f7
  - enabled: 1
    path: Assets/Scenes/Victory.unity
    guid: a66539e562d2fe24780d24e3a2b88559
  m_configObjects: {}
